…
tran_ent
```

    ## # A tibble: 1,868 × 20
    ##    line     station_…¹ stati…² stati…³ route1 route2 route3 route4 route5 route6
    ##    <chr>    <chr>        <dbl>   <dbl> <chr>  <chr>  <chr>  <chr>  <chr>  <chr> 
    ##  1 4 Avenue 25th St       40.7   -74.0 R      <NA>   <NA>   <NA>   <NA>   <NA>  
    ##  2 4 Avenue 25th St       40.7   -74.0 R      <NA>   <NA>   <NA>   <NA>   <NA>  
    ##  3 4 Avenue 36th St       40.7   -74.0 N      R      <NA>   <NA>   <NA>   <NA>  
    ##  4 4 Avenue 36th St       40.7   -74.0 N      R      <NA>   <NA>   <NA>   <NA>  
    ##  5 4 Avenue 36th St       40.7   -74.0 N      R      <NA>   <NA>   <NA>   <NA>  
    ##  6 4 Avenue 45th St       40.6   -74.0 R      <NA>   <NA>   <NA>   <NA>   <NA>  
    ##  7 4 Avenue 45th St       40.6   -74.0 R      <NA>   <NA>   <NA>   <NA>   <NA>  
    ##  8 4 Avenue 45th St       40.6   -74.0 R      <NA>   <NA>   <NA>   <NA>   <NA>  
    ##  9 4 Avenue 45th St       40.6   -74.0 R      <NA>   <NA>   <NA>   <NA>   <NA>  
    ## 10 4 Avenue 53rd St       40.6   -74.0 R      <NA>   <NA>   <NA>   <NA>   <NA>  
    ## # … with 1,858 more rows, 10 more variables: route7 <chr>, route8 <chr>,
    ## #   route9 <chr>, route10 <chr>, route11 <chr>, entry <lgl>, exit_only <chr>,
    ## #   vending <chr>, entrance_type <chr>, ada <lgl>, and abbreviated variable
    ## #   names ¹​station_name, ²​station_latitude, ³​station_longitude
